{
	"info": {
		"_postman_id": "9d4df2ad-f3b1-4fe5-953d-cca653432c93",
		"name": "s32",
		"schema": "https://schema.getpostman.com/json/collection/v2.1.0/collection.json"
	},
	"item": [
		{
			"name": "GET",
			"request": {
				"method": "GET",
				"header": [],
				"url": {
					"raw": ""
				}
			},
			"response": []
		}
	]
}